﻿■■■■■■■■■■■■■■■■■■■■■■■■■■■■■■■■■■■■■■■
■■ 프로그램			: 기본 설정용
■■ 최초 작성 날짜	: 2017년 10월 2일
■■ 최종 작성 날짜	: 2017년 11월 2일
■■---------------------------------------------------------------------------
■■ Version 표기법 : 1st . 2nd . 3rd . 4th
■■ 1st : Major			-> 프로그램 변경이 많은 경우
■■ 2nd : Minor			-> 기능 추가, 클래스 추가 등
■■ 3rd : BuildNumber	-> 코드 수정(오류, 기능변경), 리소스 추가
■■ 4th : RevisionNumber	-> 설정 변경, 리소스 변경, 단순 오류 처리
■■---------------------------------------------------------------------------
■■■■■■■■■■■■■■■■■■■■■■■■■■■■■■■■■■■■■■■
===============================================================================
Version : 1.0.0.0
Date	: 2019/03/07
-------------------------------------------------------------------------------
-> 최종배포
-------------------------------------------------------------------------------
